%YAML 1.1
%TAG !u! tag:unity3d.com,2011:
--- !u!1 &2733270567055909684
GameObject:
  m_ObjectHideFlags: 0
  m_CorrespondingSourceObject: {fileID: 0}
  m_PrefabInstance: {fileID: 0}
  m_PrefabAsset: {fileID: 0}
  serializedVersion: 6
  m_Component:
  - component: {fileID: 2733270567055909683}
  - component: {fileID: 5734489347012683203}
  m_Layer: 0
  m_Name: Head_Arrow
  m_TagString: Untagged
  m_Icon: {fileID: 0}
  m_NavMeshLayer: 0
  m_StaticEditorFlags: 0
  m_IsActive: 1
--- !u!4 &2733270567055909683
Transform:
  m_ObjectHideFlags: 0
  m_CorrespondingSourceObject: {fileID: 0}
  m_PrefabInstance: {fileID: 0}
  m_PrefabAsset: {fileID: 0}
  m_GameObject: {fileID: 2733270567055909684}
  m_LocalRotation: {x: 0, y: 0, z: 0, w: 1}
  m_LocalPosition: {x: -2.5, y: 0, z: 0}
  m_LocalScale: {x: 1, y: 1, z: 1}
  m_ConstrainProportionsScale: 0
  m_Children:
  - {fileID: 6247669677156849079}
  m_Father: {fileID: 0}
  m_RootOrder: 10
  m_LocalEulerAnglesHint: {x: 0, y: 0, z: 0}
--- !u!114 &5734489347012683203
MonoBehaviour:
  m_ObjectHideFlags: 0
  m_CorrespondingSourceObject: {fileID: 0}
  m_PrefabInstance: {fileID: 0}
  m_PrefabAsset: {fileID: 0}
  m_GameObject: {fileID: 2733270567055909684}
  m_Enabled: 1
  m_EditorHideFlags: 0
  m_Script: {fileID: 11500000, guid: f335f82af1f8dcb469a396347ae5d293, type: 3}
  m_Name: 
  m_EditorClassIdentifier: 
  towerObjectSO: {fileID: 11400000, guid: e56bcc2e4c2f6334abe9a842cb801a30, type: 2}
--- !u!1001 &2411386711066412850
PrefabInstance:
  m_ObjectHideFlags: 0
  serializedVersion: 2
  m_Modification:
    serializedVersion: 3
    m_TransformParent: {fileID: 2733270567055909683}
    m_Modifications:
    - target: {fileID: 8629698465684771460, guid: f9f17cd1dbdc46e4f8e7de8bf4d61bb8,
        type: 3}
      propertyPath: m_Name
      value: HeadArrow_Visual
      objectReference: {fileID: 0}
    - target: {fileID: 8629698465684771461, guid: f9f17cd1dbdc46e4f8e7de8bf4d61bb8,
        type: 3}
      propertyPath: m_RootOrder
      value: 0
      objectReference: {fileID: 0}
    - target: {fileID: 8629698465684771461, guid: f9f17cd1dbdc46e4f8e7de8bf4d61bb8,
        type: 3}
      propertyPath: m_LocalPosition.x
      value: 0
      objectReference: {fileID: 0}
    - target: {fileID: 8629698465684771461, guid: f9f17cd1dbdc46e4f8e7de8bf4d61bb8,
        type: 3}
      propertyPath: m_LocalPosition.y
      value: 0
      objectReference: {fileID: 0}
    - target: {fileID: 8629698465684771461, guid: f9f17cd1dbdc46e4f8e7de8bf4d61bb8,
        type: 3}
      propertyPath: m_LocalPosition.z
      value: 0
      objectReference: {fileID: 0}
    - target: {fileID: 8629698465684771461, guid: f9f17cd1dbdc46e4f8e7de8bf4d61bb8,
        type: 3}
      propertyPath: m_LocalRotation.w
      value: 1
      objectReference: {fileID: 0}
    - target: {fileID: 8629698465684771461, guid: f9f17cd1dbdc46e4f8e7de8bf4d61bb8,
        type: 3}
      propertyPath: m_LocalRotation.x
      value: 0
      objectReference: {fileID: 0}
    - target: {fileID: 8629698465684771461, guid: f9f17cd1dbdc46e4f8e7de8bf4d61bb8,
        type: 3}
      propertyPath: m_LocalRotation.y
      value: 0
      objectReference: {fileID: 0}
    - target: {fileID: 8629698465684771461, guid: f9f17cd1dbdc46e4f8e7de8bf4d61bb8,
        type: 3}
      propertyPath: m_LocalRotation.z
      value: 0
      objectReference: {fileID: 0}
    - target: {fileID: 8629698465684771461, guid: f9f17cd1dbdc46e4f8e7de8bf4d61bb8,
        type: 3}
      propertyPath: m_LocalEulerAnglesHint.x
      value: 0
      objectReference: {fileID: 0}
    - target: {fileID: 8629698465684771461, guid: f9f17cd1dbdc46e4f8e7de8bf4d61bb8,
        type: 3}
      propertyPath: m_LocalEulerAnglesHint.y
      value: 0
      objectReference: {fileID: 0}
    - target: {fileID: 8629698465684771461, guid: f9f17cd1dbdc46e4f8e7de8bf4d61bb8,
        type: 3}
      propertyPath: m_LocalEulerAnglesHint.z
      value: 0
      objectReference: {fileID: 0}
    m_RemovedComponents: []
    m_RemovedGameObjects: []
    m_AddedGameObjects: []
    m_AddedComponents: []
  m_SourcePrefab: {fileID: 100100000, guid: f9f17cd1dbdc46e4f8e7de8bf4d61bb8, type: 3}
--- !u!4 &6247669677156849079 stripped
Transform:
  m_CorrespondingSourceObject: {fileID: 8629698465684771461, guid: f9f17cd1dbdc46e4f8e7de8bf4d61bb8,
    type: 3}
  m_PrefabInstance: {fileID: 2411386711066412850}
  m_PrefabAsset: {fileID: 0}
