%YAML 1.1
%TAG !u! tag:unity3d.com,2011:
--- !u!114 &11400000
MonoBehaviour:
  m_ObjectHideFlags: 0
  m_CorrespondingSourceObject: {fileID: 0}
  m_PrefabInstance: {fileID: 0}
  m_PrefabAsset: {fileID: 0}
  m_GameObject: {fileID: 0}
  m_Enabled: 1
  m_EditorHideFlags: 0
  m_Script: {fileID: 11500000, guid: bd3cb2a65e32c3d4892593e8a766f468, type: 3}
  m_Name: ArrowTower_Standard
  m_EditorClassIdentifier: 
  towerObjectSO: {fileID: 11400000, guid: a3f63745a9bec6043b5723b33d179933, type: 2}
  projectilePrefab: {fileID: 8841124565870952645, guid: 53aa7fa7a4667884c8b7c096a6a32893,
    type: 3}
  damage: 20
  attackSpeed: 1
  range: 15
