%YAML 1.1
%TAG !u! tag:unity3d.com,2011:
--- !u!114 &11400000
MonoBehaviour:
  m_ObjectHideFlags: 0
  m_CorrespondingSourceObject: {fileID: 0}
  m_PrefabInstance: {fileID: 0}
  m_PrefabAsset: {fileID: 0}
  m_GameObject: {fileID: 0}
  m_Enabled: 1
  m_EditorHideFlags: 0
  m_Script: {fileID: 11500000, guid: bd3cb2a65e32c3d4892593e8a766f468, type: 3}
  m_Name: ArtilleryTower_Standard
  m_EditorClassIdentifier: 
  towerObjectSO: {fileID: 11400000, guid: d52219b60e2fe8f44a6237be7e773504, type: 2}
  projectilePrefab: {fileID: 8841124565870952645, guid: e8ebdd2cc1bfdbb4b9cc22632a4e6c3b,
    type: 3}
  damage: 90
  attackSpeed: 6.5
  range: 50
