%YAML 1.1
%TAG !u! tag:unity3d.com,2011:
--- !u!114 &11400000
MonoBehaviour:
  m_ObjectHideFlags: 0
  m_CorrespondingSourceObject: {fileID: 0}
  m_PrefabInstance: {fileID: 0}
  m_PrefabAsset: {fileID: 0}
  m_GameObject: {fileID: 0}
  m_Enabled: 1
  m_EditorHideFlags: 0
  m_Script: {fileID: 11500000, guid: bd3cb2a65e32c3d4892593e8a766f468, type: 3}
  m_Name: RailgunTower_Standard
  m_EditorClassIdentifier: 
  towerObjectSO: {fileID: 11400000, guid: 8311de32ad8afd24cae89ed507ff100f, type: 2}
  projectilePrefab: {fileID: 8841124565870952645, guid: 87da533e61683894da0993effd8f1b87,
    type: 3}
  damage: 40
  attackSpeed: 3
  range: 20
