%YAML 1.1
%TAG !u! tag:unity3d.com,2011:
--- !u!114 &11400000
MonoBehaviour:
  m_ObjectHideFlags: 0
  m_CorrespondingSourceObject: {fileID: 0}
  m_PrefabInstance: {fileID: 0}
  m_PrefabAsset: {fileID: 0}
  m_GameObject: {fileID: 0}
  m_Enabled: 1
  m_EditorHideFlags: 0
  m_Script: {fileID: 11500000, guid: 621d3ae518f44f84bac8e699d3bec3e3, type: 3}
  m_Name: ArtilleryHead + SlowStrong
  m_EditorClassIdentifier: 
  inputList:
  - {fileID: 11400000, guid: 6aaef4060fc502044af0f21192862979, type: 2}
  - {fileID: 11400000, guid: 31a877a5bd231494180f657481393292, type: 2}
  output: {fileID: 11400000, guid: 4d4cc0f9a3d9a374ca47a3e4f93efa40, type: 2}
  mergingProgressMax: 15
