%YAML 1.1
%TAG !u! tag:unity3d.com,2011:
--- !u!114 &11400000
MonoBehaviour:
  m_ObjectHideFlags: 0
  m_CorrespondingSourceObject: {fileID: 0}
  m_PrefabInstance: {fileID: 0}
  m_PrefabAsset: {fileID: 0}
  m_GameObject: {fileID: 0}
  m_Enabled: 1
  m_EditorHideFlags: 0
  m_Script: {fileID: 11500000, guid: 621d3ae518f44f84bac8e699d3bec3e3, type: 3}
  m_Name: RailgunHead + Standard
  m_EditorClassIdentifier: 
  inputList:
  - {fileID: 11400000, guid: 5d15debb0df2e494e9faa30bb3617706, type: 2}
  - {fileID: 11400000, guid: de43ae00d8e8b0747b11e57e5e80ceae, type: 2}
  output: {fileID: 11400000, guid: 8311de32ad8afd24cae89ed507ff100f, type: 2}
  mergingProgressMax: 5
